<?xml version="1.0" encoding="utf-8"?>
<!-- Generator: Adobe Illustrator 25.0.0, SVG Export Plug-In . SVG Version: 6.00 Build 0)  -->
<svg version="1.1" id="Capa_1" xmlns="http://www.w3.org/2000/svg" xmlns:xlink="http://www.w3.org/1999/xlink" x="0px" y="0px"
	 viewBox="0 0 512 512" style="enable-background:new 0 0 512 512;" xml:space="preserve">
<style type="text/css">
	.st0{fill:#3371F2;}
</style>
<g>
	<path class="st0" d="M309,93.8H70.5c-4.1,0-7.5,3.4-7.5,7.5s3.4,7.5,7.5,7.5H309c4.1,0,7.5-3.4,7.5-7.5S313.1,93.8,309,93.8z"/>
	<path class="st0" d="M266.8,152.3c0-4.1-3.4-7.5-7.5-7.5H70.5c-4.1,0-7.5,3.4-7.5,7.5s3.4,7.5,7.5,7.5h188.8
		C263.4,159.8,266.8,156.4,266.8,152.3z"/>
	<path class="st0" d="M449,229.3c4.1,0,7.5-3.4,7.5-7.5v-69.5c0-4.1-3.4-7.5-7.5-7.5h-99.5c-4.1,0-7.5,3.4-7.5,7.5v169.5
		c0,4.1,3.4,7.5,7.5,7.5H449c4.1,0,7.5-3.4,7.5-7.5v-65c0-4.1-3.4-7.5-7.5-7.5s-7.5,3.4-7.5,7.5v57.5H357V159.8h84.5v62
		C441.5,225.9,444.9,229.3,449,229.3z"/>
	<path class="st0" d="M209.5,329.3H309c4.1,0,7.5-3.4,7.5-7.5V204.3c0-4.1-3.4-7.5-7.5-7.5h-99.5c-4.1,0-7.5,3.4-7.5,7.5v117.5
		C202,325.9,205.4,329.3,209.5,329.3z M217,211.8h84.5v102.5H217V211.8z"/>
	<path class="st0" d="M70.5,247.8c-4.1,0-7.5,3.4-7.5,7.5v66.5c0,4.1,3.4,7.5,7.5,7.5H170c4.1,0,7.5-3.4,7.5-7.5v-66.5
		c0-4.1-3.4-7.5-7.5-7.5H70.5z M162.5,314.3H78v-51.5h84.5V314.3z"/>
	<path class="st0" d="M494.5,5.4H105c-4.1,0-7.5,3.4-7.5,7.5s3.4,7.5,7.5,7.5h389.5c1.4,0,2.5,1.1,2.5,2.5v19.9H352
		c-4.1,0-7.5,3.4-7.5,7.5s3.4,7.5,7.5,7.5h145v296.1c0,1.4-1.1,2.5-2.5,2.5h-477c-1.4,0-2.5-1.1-2.5-2.5V57.8h302
		c4.1,0,7.5-3.4,7.5-7.5s-3.4-7.5-7.5-7.5H15V22.9c0-1.4,1.1-2.5,2.5-2.5H70c4.1,0,7.5-3.4,7.5-7.5S74.1,5.4,70,5.4H17.5
		C7.9,5.4,0,13.2,0,22.9v331c0,9.6,7.9,17.5,17.5,17.5h178.1l-21,33.1c-2.2,3.5-1.2,8.1,2.3,10.4c3.4,2.2,8.1,1.2,10.4-2.3
		l26.2-41.1h13l-72.4,117.2c-4.2,7.1-15.3,0.3-10.9-6.6l25.5-40.1c2.2-3.5,1.2-8.1-2.3-10.4c-3.5-2.2-8.1-1.2-10.4,2.3L130.4,474
		c-6.3,9.7-3,23.7,7,29.5c9.7,6.2,23.6,2.9,29.4-7l32.4-52.5h116.4l32.6,52.5c5.8,10,19.7,13.2,29.4,7c10-6.2,13.2-19.4,7-29.4
		c0,0,0-0.1-0.1-0.1l-65.2-102.6h175.3c9.6,0,17.5-7.9,17.5-17.5v-331C512,13.2,504.1,5.4,494.5,5.4z M270.4,371.4l18.4,29.6h-63.1
		l18.3-29.6H270.4z M208.4,429l8-13h81.7l8.1,13H208.4z M371.7,482c4.4,7-6.7,13.8-10.9,6.6l-72.7-117.2h13.3L371.7,482z"/>
</g>
</svg>
